{
  "package_name": "saigo_newlib",
  "package_targets": {
    "linux_x86": {
      "archives": [
        {
          "extract_dir": "",
          "hash": "9d825da7aeb2db224f2c4019c43ff52f560b9e4c",
          "log_url": "https://storage.googleapis.com/nativeclient-once/log/binutils_x86_64_linux_678bfa572286e60b258503dff5933b210c18c01f.log",
          "name": "binutils_x86_64_linux.tgz",
          "tar_src_dir": "",
          "url": "https://storage.googleapis.com/nativeclient-once/object/binutils_x86_64_linux_678bfa572286e60b258503dff5933b210c18c01f.tgz"
        },
        {
          "extract_dir": "",
          "hash": "e31daf87725ac0af5cae7a7fca6646c5f99bd22c",
          "log_url": "https://storage.googleapis.com/nativeclient-once/log/binutils_x86_x86_64_linux_0fcc27e76ec31a8e346ec5edb1e1b1fe84f44ff9.log",
          "name": "binutils_x86_x86_64_linux.tgz",
          "tar_src_dir": "",
          "url": "https://storage.googleapis.com/nativeclient-once/object/binutils_x86_x86_64_linux_0fcc27e76ec31a8e346ec5edb1e1b1fe84f44ff9.tgz"
        },
        {
          "extract_dir": "",
          "hash": "3538149ed23f58f0055077ff1037266e1ece4736",
          "log_url": "https://storage.googleapis.com/nativeclient-once/log/core_sdk_libs_saigo_arm_20c6552cf077f00e16f904b55ef97f7aa7296b10.log",
          "name": "core_sdk_libs_saigo_arm.tgz",
          "tar_src_dir": "",
          "url": "https://storage.googleapis.com/nativeclient-once/object/core_sdk_libs_saigo_arm_20c6552cf077f00e16f904b55ef97f7aa7296b10.tgz"
        },
        {
          "extract_dir": "",
          "hash": "e23033e179f99c97c9850e2e9b5bab8c54a807b0",
          "log_url": "https://storage.googleapis.com/nativeclient-once/log/core_sdk_libs_saigo_i686_4fbf5dddc22872b0e3e9a370ceebc81d8cffaec2.log",
          "name": "core_sdk_libs_saigo_i686.tgz",
          "tar_src_dir": "",
          "url": "https://storage.googleapis.com/nativeclient-once/object/core_sdk_libs_saigo_i686_4fbf5dddc22872b0e3e9a370ceebc81d8cffaec2.tgz"
        },
        {
          "extract_dir": "",
          "hash": "880836dce37b87a1c4363880e64cfdc6fab141fd",
          "log_url": "https://storage.googleapis.com/nativeclient-once/log/core_sdk_libs_saigo_x86_64_38256359017bd5fad32242da1c537d0f863286fe.log",
          "name": "core_sdk_libs_saigo_x86_64.tgz",
          "tar_src_dir": "",
          "url": "https://storage.googleapis.com/nativeclient-once/object/core_sdk_libs_saigo_x86_64_38256359017bd5fad32242da1c537d0f863286fe.tgz"
        },
        {
          "extract_dir": "",
          "hash": "7cdd43464bf818f4bdcb44e6d779588e25dcae13",
          "log_url": "https://storage.googleapis.com/nativeclient-once/log/libcxx_saigo_arm_3fbf8818c6911c8374dc9e38dedc9aaa35538edb.log",
          "name": "libcxx_saigo_arm.tgz",
          "tar_src_dir": "",
          "url": "https://storage.googleapis.com/nativeclient-once/object/libcxx_saigo_arm_3fbf8818c6911c8374dc9e38dedc9aaa35538edb.tgz"
        },
        {
          "extract_dir": "",
          "hash": "66927b75b1c3d6fe3262a58879abe6cce233f498",
          "log_url": "https://storage.googleapis.com/nativeclient-once/log/libcxx_saigo_i686_bca0349b1ff54ad522a0176db6b4cbeb06d726c2.log",
          "name": "libcxx_saigo_i686.tgz",
          "tar_src_dir": "",
          "url": "https://storage.googleapis.com/nativeclient-once/object/libcxx_saigo_i686_bca0349b1ff54ad522a0176db6b4cbeb06d726c2.tgz"
        },
        {
          "extract_dir": "",
          "hash": "81f9c16592a9ab9d23a646e98f86e0222a1c2d9a",
          "log_url": "https://storage.googleapis.com/nativeclient-once/log/libcxx_saigo_x86_64_2c15c895cd5ba80cbdd4af6a88e009e04a2aa932.log",
          "name": "libcxx_saigo_x86_64.tgz",
          "tar_src_dir": "",
          "url": "https://storage.googleapis.com/nativeclient-once/object/libcxx_saigo_x86_64_2c15c895cd5ba80cbdd4af6a88e009e04a2aa932.tgz"
        },
        {
          "extract_dir": "",
          "hash": "e624b1d981423ab13cd824cad16f122905de836e",
          "log_url": "https://storage.googleapis.com/nativeclient-once/log/libgcc_eh_saigo_arm_f8e3ef2e74d0267a893a081854b2f9251600c5ec.log",
          "name": "libgcc_eh_saigo_arm.tgz",
          "tar_src_dir": "",
          "url": "https://storage.googleapis.com/nativeclient-once/object/libgcc_eh_saigo_arm_f8e3ef2e74d0267a893a081854b2f9251600c5ec.tgz"
        },
        {
          "extract_dir": "",
          "hash": "436f04f2d23cd7cc0f6a5c049b41c0511271c84c",
          "log_url": "https://storage.googleapis.com/nativeclient-once/log/libgcc_eh_saigo_x86_32_6aa528d6be4ded45ed725cc0045a9d1a86e9c63b.log",
          "name": "libgcc_eh_saigo_x86_32.tgz",
          "tar_src_dir": "",
          "url": "https://storage.googleapis.com/nativeclient-once/object/libgcc_eh_saigo_x86_32_6aa528d6be4ded45ed725cc0045a9d1a86e9c63b.tgz"
        },
        {
          "extract_dir": "",
          "hash": "93732224f77845104f74b2ac19e1e35e019ac011",
          "log_url": "https://storage.googleapis.com/nativeclient-once/log/libgcc_eh_saigo_x86_64_073a79dc11c7b53c6878da1ff06270e60cbbef5c.log",
          "name": "libgcc_eh_saigo_x86_64.tgz",
          "tar_src_dir": "",
          "url": "https://storage.googleapis.com/nativeclient-once/object/libgcc_eh_saigo_x86_64_073a79dc11c7b53c6878da1ff06270e60cbbef5c.tgz"
        },
        {
          "extract_dir": "",
          "hash": "281c4b76f8eb6a968a95c3665f2dcf6e83daca3b",
          "log_url": "https://storage.googleapis.com/nativeclient-once/log/libs_support_saigo_arm_f3641717b826aa35c32bf1aef612f2e292e3d174.log",
          "name": "libs_support_saigo_arm.tgz",
          "tar_src_dir": "",
          "url": "https://storage.googleapis.com/nativeclient-once/object/libs_support_saigo_arm_f3641717b826aa35c32bf1aef612f2e292e3d174.tgz"
        },
        {
          "extract_dir": "",
          "hash": "8cee5003a06ce536e1729728476cda41b7f82f3c",
          "log_url": "https://storage.googleapis.com/nativeclient-once/log/libs_support_saigo_i686_d41f88e736cae126a34f26958f32b18c2a7da5fb.log",
          "name": "libs_support_saigo_i686.tgz",
          "tar_src_dir": "",
          "url": "https://storage.googleapis.com/nativeclient-once/object/libs_support_saigo_i686_d41f88e736cae126a34f26958f32b18c2a7da5fb.tgz"
        },
        {
          "extract_dir": "",
          "hash": "2a273ed83796af68f08dc9fce59fbda31e5aa2fc",
          "log_url": "https://storage.googleapis.com/nativeclient-once/log/libs_support_saigo_x86_64_0ae198ce7aaf46a244685b603b92b2c80931928d.log",
          "name": "libs_support_saigo_x86_64.tgz",
          "tar_src_dir": "",
          "url": "https://storage.googleapis.com/nativeclient-once/object/libs_support_saigo_x86_64_0ae198ce7aaf46a244685b603b92b2c80931928d.tgz"
        },
        {
          "extract_dir": "",
          "hash": "23e4738ecf23fca9f7d59eab913f14defefac8bc",
          "log_url": "https://storage.googleapis.com/nativeclient-once/log/llvm_saigo_x86_64_linux_2dfe03d4a9f2f21541e2d51d28be924a43223c52.log",
          "name": "llvm_saigo_x86_64_linux.tgz",
          "tar_src_dir": "",
          "url": "https://storage.googleapis.com/nativeclient-once/object/llvm_saigo_x86_64_linux_2dfe03d4a9f2f21541e2d51d28be924a43223c52.tgz"
        },
        {
          "extract_dir": "",
          "hash": "7c588d7b59cf36b9c7d4963073db9cb9ac9fe37f",
          "log_url": "https://storage.googleapis.com/nativeclient-once/log/newlib_saigo_arm_621763e09c461a0f47daf74d44b2a38af8881dbb.log",
          "name": "newlib_saigo_arm.tgz",
          "tar_src_dir": "",
          "url": "https://storage.googleapis.com/nativeclient-once/object/newlib_saigo_arm_621763e09c461a0f47daf74d44b2a38af8881dbb.tgz"
        },
        {
          "extract_dir": "",
          "hash": "d27503dce90b5aa5270f11b860e799d9f8dacf1a",
          "log_url": "https://storage.googleapis.com/nativeclient-once/log/newlib_saigo_i686_6d0b1c9dc1b08733261e709023cf39753975158d.log",
          "name": "newlib_saigo_i686.tgz",
          "tar_src_dir": "",
          "url": "https://storage.googleapis.com/nativeclient-once/object/newlib_saigo_i686_6d0b1c9dc1b08733261e709023cf39753975158d.tgz"
        },
        {
          "extract_dir": "",
          "hash": "503659d8b45685e67ddbb818a605f7c66fa92e55",
          "log_url": "https://storage.googleapis.com/nativeclient-once/log/newlib_saigo_x86_64_7ae2f6c8bc8117cd7e2445c34a2d9c09ea34b7d9.log",
          "name": "newlib_saigo_x86_64.tgz",
          "tar_src_dir": "",
          "url": "https://storage.googleapis.com/nativeclient-once/object/newlib_saigo_x86_64_7ae2f6c8bc8117cd7e2445c34a2d9c09ea34b7d9.tgz"
        },
        {
          "extract_dir": "",
          "hash": "51fbbad4def1185e7c189e4342df1da80929db72",
          "log_url": "https://storage.googleapis.com/nativeclient-once/log/remote_toolchain_inputs_saigo_x86_64_linux_a61db3120433a15494eb6a4f863d93e264fc5fc0.log",
          "name": "remote_toolchain_inputs_saigo_x86_64_linux.tgz",
          "tar_src_dir": "",
          "url": "https://storage.googleapis.com/nativeclient-once/object/remote_toolchain_inputs_saigo_x86_64_linux_a61db3120433a15494eb6a4f863d93e264fc5fc0.tgz"
        }
      ],
      "version": 1
    }
  },
  "revision": "a4ea8c1d3f066dd9ff0d41be07d2ea02d00cee9b",
  "revision_hash": "40179c1df89ad4fdce906a9f874fc1ee75f4619b"
}